{
    "smallLogo": "media/branding/Reborn_OS_Logo_2.svg",
    "bigLogo"  : "media/branding/Reborn_OS_Logo_1.svg",
    "timeZoneMap": "media/pictures/Tz_world_mp-color.svg",
    "slides":[
        "media/slides/Slide 1 Full No Border.jpg",
        "media/slides/Slide 2 Full No Border.jpg",
        "media/slides/Slide 3 Full No Border.jpg"
    ]
}